<?xml version="1.0" encoding="utf-8"?>
<!-- Generator: Adobe Illustrator 17.0.0, SVG Export Plug-In . SVG Version: 6.00 Build 0)  -->
<!DOCTYPE svg PUBLIC "-//W3C//DTD SVG 1.1//EN" "http://www.w3.org/Graphics/SVG/1.1/DTD/svg11.dtd">
<svg version="1.1" id="Layer_1" xmlns="http://www.w3.org/2000/svg" xmlns:xlink="http://www.w3.org/1999/xlink" x="0px" y="0px"
	 width="310px" height="52.75px" viewBox="0 0 310 52.75" enable-background="new 0 0 310 52.75" xml:space="preserve">
<text transform="matrix(1 0 0 1 35.2107 37.7148)" fill="#787878" font-family="'Montserrat-Light'" font-size="36">rops of Synergy</text>
<path fill="none" stroke="#787878" stroke-width="3" stroke-miterlimit="10" d="M2.76,34.889c0,8.564,6.965,15.527,15.527,15.527
	c8.561,0,15.527-6.963,15.527-15.527c0-8.353-8.431-22.594-14.116-28.117l-3.121-3.034L16.269,8.08
	c-0.325,4.557-3.749,9.241-7.061,13.769C5.893,26.381,2.76,30.663,2.76,34.889z"/>
</svg>
